@startuml pumlpractice
box "Customer Login at T-Mobile"
Customer -> UI: HTTP GET
UI -> CMS: User Info Request
CMS -> OKTA: Auth Req
CMS <<-- OKTA: Auth Response
CMS -> CustomerDB: Customer Query
CMS <<-- CustomerDB: Customer Info
UI <<-- CMS : Customer Info
UI -->> Customer: Customer Info
@enduml 